<?xml version="1.0" encoding="UTF-16"?>
<!DOCTYPE svg PUBLIC "-//W3C//DTD SVG 1.1//EN" "http://www.w3.org/Graphics/SVG/1.1/DTD/svg11.dtd">
<!-- Creator: CorelDRAW 2019 (64-Bit) -->
<svg xmlns="http://www.w3.org/2000/svg" xml:space="preserve" width="330.738mm" height="372.093mm" version="1.1" style="shape-rendering:geometricPrecision; text-rendering:geometricPrecision; image-rendering:optimizeQuality; fill-rule:evenodd; clip-rule:evenodd"
viewBox="0 0 13409.28 15086"
 xmlns:xlink="http://www.w3.org/1999/xlink"
 xmlns:xodm="http://www.corel.com/coreldraw/odm/2003">
 <defs>
  <style type="text/css">
   <![CDATA[
    .fil0 {fill:#EAEFF5;fill-rule:nonzero}
   ]]>
  </style>
 </defs>
 <g id="Layer_x0020_1">
  <metadata id="CorelCorpID_0Corel-Layer"/>
  <g id="_2001275089536">
   <g>
    <g>
     <g>
      <path class="fil0" d="M12162.48 109.1l0 -1.29c-83.84,-115.14 -245.11,-140.51 -360.25,-56.67 -113.72,82.81 -140.09,241.43 -59.31,356.6 1534.17,2147.36 1534.17,5032.29 0,7179.65 -83.23,115.59 -56.99,276.73 58.6,359.96 0.48,0.35 1,0.71 1.51,1.06 115.82,82.65 276.67,55.86 359.47,-59.83 1662.37,-2326.74 1662.37,-5452.75 -0.03,-7779.48z"/>
      <path class="fil0" d="M1606.3 48.02c0,0 -0.03,0 -0.03,-0.03 -115.82,-82.65 -276.66,-55.86 -359.47,59.83 -1662.4,2326.74 -1662.4,5452.72 0,7779.46 83.84,115.14 245.11,140.51 360.25,56.67 113.72,-82.81 140.09,-241.43 59.31,-356.57 -1534.17,-2147.36 -1534.17,-5032.29 0,-7179.65 82.74,-115.91 55.86,-276.95 -60.05,-359.7z"/>
      <path class="fil0" d="M3246.33 1312.07c87.23,-112.56 66.69,-274.57 -45.9,-361.79 0,0 0,0 0,0 -112.17,-86.93 -273.54,-66.88 -361.02,44.87 -1377.71,1764.52 -1377.71,4240.27 0,6004.79 87.51,112.37 249.55,132.51 361.92,45 112.37,-87.52 132.51,-249.55 45,-361.92 -1232.63,-1578.14 -1232.63,-3792.77 0,-5370.94z"/>
      <path class="fil0" d="M10208.91 950.24c0,0 -0.03,0.03 -0.03,0.03 -111.76,87.48 -131.81,248.85 -44.87,361.02 1232.66,1578.14 1232.66,3792.8 0,5370.94 -87.51,112.37 -67.37,274.41 45,361.92 112.37,87.51 274.41,67.37 361.92,-45 1377.71,-1764.52 1377.71,-4240.27 0,-6004.79 -87.81,-112.14 -249.88,-131.9 -362.02,-44.13z"/>
      <path class="fil0" d="M8581.94 2233.44c935.2,990.16 935.2,2538.03 0,3528.19 -97.64,103.7 -92.71,266.9 10.96,364.54 0.03,0.03 0.06,0.06 0.13,0.1 103.76,97.57 266.96,92.54 364.5,-11.22 0.03,-0.03 0.06,-0.1 0.13,-0.13 1121.87,-1188.69 1121.87,-3046.07 0,-4234.76 -96.74,-104.53 -259.9,-110.82 -364.41,-14.08 -104.54,96.73 -110.82,259.9 -14.08,364.41 0.9,1 1.84,1.99 2.77,2.96z"/>
      <path class="fil0" d="M4639.35 6196.14c142.41,0.06 257.94,-115.33 258,-257.74 0.03,-65.69 -25.02,-128.9 -70.01,-176.77 -935.2,-990.16 -935.2,-2538.03 0,-3528.19 98.38,-102.99 94.64,-266.22 -8.35,-364.6 -102.98,-98.37 -266.22,-94.64 -364.6,8.35 -0.94,0.96 -1.87,1.96 -2.77,2.96 -1121.87,1188.69 -1121.87,3046.07 0,4234.76 48.7,51.8 116.62,81.2 187.73,81.23z"/>
      <path class="fil0" d="M10049.23 14763.91l-2510.89 -9791.11c543.21,-460.43 610.28,-1274.05 149.86,-1817.25 -460.43,-543.2 -1274.05,-610.28 -1817.25,-149.85 -543.21,460.43 -610.28,1274.05 -149.85,1817.25 45.74,53.99 95.86,104.12 149.85,149.85l-2510.63 9791.11c-35.49,137.93 47.57,278.5 185.51,313.99 0.13,0.03 0.29,0.06 0.42,0.09 20.92,5.29 42.39,7.96 63.95,8 117.65,-0.06 220.32,-79.71 249.62,-193.66l86.13 -335.23c14.44,-4.09 28.49,-9.44 42.03,-15.99l4820.39 -2537.19 740.61 2888.15c29.24,114.24 132.22,194.08 250.13,193.92 21.66,0 43.23,-2.68 64.21,-8 137.99,-35.23 221.29,-175.67 186.02,-313.67 -0.03,-0.13 -0.06,-0.26 -0.1,-0.42zm-2486.14 -7617.77l-1402.3 -1227.21 177.41 -691.61c118.56,37.75 242.01,57.79 366.43,59.57 124.39,-1.77 247.88,-21.82 366.44,-59.57l492.02 1918.82zm-858.45 -3922.22c427.26,0 773.62,346.35 773.62,773.61 0,427.26 -346.36,773.61 -773.62,773.61 -427.26,0 -773.61,-346.35 -773.61,-773.61 0,-427.26 346.35,-773.61 773.61,-773.61zm-687.23 3254.59l1553.16 1359.49 -2295.05 1529.18 741.89 -2888.67zm-1900.51 7411.47l925.76 -3610.19 3146.03 1467.8 -4071.78 2142.39zm1307.15 -4001.13l2427.34 -1618.4 801.21 3124.88 -3228.55 -1506.49z"/>
     </g>
    </g>
   </g>
   <g>
   </g>
   <g>
   </g>
   <g>
   </g>
   <g>
   </g>
   <g>
   </g>
   <g>
   </g>
   <g>
   </g>
   <g>
   </g>
   <g>
   </g>
   <g>
   </g>
   <g>
   </g>
   <g>
   </g>
   <g>
   </g>
   <g>
   </g>
   <g>
   </g>
  </g>
 </g>
</svg>
