<?xml version="1.0" encoding="UTF-16"?>
<!DOCTYPE svg PUBLIC "-//W3C//DTD SVG 1.1//EN" "http://www.w3.org/Graphics/SVG/1.1/DTD/svg11.dtd">
<!-- Creator: CorelDRAW 2019 (64-Bit) -->
<svg xmlns="http://www.w3.org/2000/svg" xml:space="preserve" width="372.093mm" height="272.868mm" version="1.1" style="shape-rendering:geometricPrecision; text-rendering:geometricPrecision; image-rendering:optimizeQuality; fill-rule:evenodd; clip-rule:evenodd"
viewBox="0 0 18956.93 13901.75"
 xmlns:xlink="http://www.w3.org/1999/xlink"
 xmlns:xodm="http://www.corel.com/coreldraw/odm/2003">
 <defs>
  <style type="text/css">
   <![CDATA[
    .fil0 {fill:#EAEFF5;fill-rule:nonzero}
   ]]>
  </style>
 </defs>
 <g id="Layer_x0020_1">
  <metadata id="CorelCorpID_0Corel-Layer"/>
  <g id="_2000755377936">
   <g>
    <g>
     <path class="fil0" d="M18640.98 3159.49l-947.84 0 0 -473.92c0,-610.73 -495.1,-1105.82 -1105.82,-1105.82 -164.29,0.91 -326.26,38.82 -473.92,110.9l0 -426.85c0,-697.97 -565.83,-1263.8 -1263.8,-1263.8 -697.97,0 -1263.8,565.83 -1263.8,1263.8l0 1895.69 -1263.79 0 0 -315.95c2.29,-521.2 -418.36,-945.6 -939.56,-947.93 -236.76,-1.07 -465.28,86.93 -640.19,246.52 -357.18,-328.59 -906.61,-328.59 -1263.8,0 -357.18,-328.59 -906.61,-328.59 -1263.8,0 -385.06,-351.25 -981.97,-323.84 -1333.23,61.22 -159.56,174.92 -247.55,403.43 -246.52,640.19l0 315.95 -1263.8 0 0 -1895.69c0,-697.97 -565.83,-1263.8 -1263.8,-1263.8 -697.97,0 -1263.8,565.83 -1263.8,1263.8l0 426.85c-147.67,-72.07 -309.63,-109.99 -473.92,-110.9 -610.73,0 -1105.82,495.09 -1105.82,1105.82l0 473.92 -947.85 0c-174.48,0 -315.95,141.47 -315.95,315.95l0 1895.69c0,174.48 141.46,315.95 315.95,315.95l947.85 0 0 473.92c0,610.73 495.09,1105.82 1105.82,1105.82 164.29,-0.91 326.26,-38.82 473.92,-110.9l0 426.85c0,697.97 565.83,1263.8 1263.8,1263.8 697.97,0 1263.8,-565.83 1263.8,-1263.8l0 -1895.69 631.9 0 0 1056.22c-1.03,419.14 165.64,821.31 462.87,1116.88l800.93 801.24 0 5240.33 631.9 0 0 -5371.13c0,-83.8 -33.33,-164.13 -92.57,-223.37l-893.5 -893.82c-177.29,-178.04 -277.09,-418.87 -277.72,-670.13l0 -2004.06 1850.51 0c119.62,-1.62 232.97,53.32 305.84,148.18 2.21,3.16 4.74,6.32 6.95,9.8 13.55,21.56 24.17,44.82 31.6,69.19 5.96,19.47 9.99,39.45 12,59.71 2.22,19.82 2.22,39.89 0,59.71 -0.71,10.62 -2.09,21.17 -4.11,31.6 -7.15,33.29 -19.43,65.24 -36.34,94.78 -55.09,97.83 -158.49,158.49 -270.77,158.92l-947.85 0c-174.48,0 -315.95,141.46 -315.95,315.95l0 631.9c-0.04,136.06 87.04,256.83 216.11,299.84l695.09 232.23c564.28,187.36 984.5,1041.36 984.5,1679.58l631.9 0c0,-869.17 -540.9,-1987.95 -1415.13,-2279.25l-480.56 -160.19 0 -88.15 631.9 0c265.91,-2.57 518.35,-117.3 695.09,-315.95l2780.35 0 0 1158.59c-0.39,205.01 -66.86,404.46 -189.57,568.71l-695.09 926.68c-41.03,54.7 -63.19,121.21 -63.19,189.57l0 5371.13 631.9 0 0 -5265.92 631.9 -842.32c204.5,-273.73 315.31,-606.14 315.95,-947.84l0 -1158.59 947.85 0 0 1895.69c0,697.97 565.83,1263.8 1263.8,1263.8 697.97,0 1263.8,-565.83 1263.8,-1263.8l0 -426.85c147.66,72.07 309.63,109.99 473.92,110.9 610.73,0 1105.82,-495.09 1105.82,-1105.82l0 -473.92 947.84 0c174.48,0 315.95,-141.46 315.95,-315.95l0 -1895.69c0,-174.48 -141.47,-315.95 -315.95,-315.95zm-17377.18 1895.69l-631.9 0 0 -1263.8 631.9 0 0 1263.8zm1579.74 1105.82c0,261.73 -212.2,473.93 -473.92,473.93 -261.72,0 -473.92,-212.2 -473.92,-473.93l0 -3475.44c0,-261.72 212.2,-473.92 473.92,-473.92 261.72,0 473.92,212.2 473.92,473.92l0 3475.44zm1895.69 1421.77c0,349.01 -282.89,631.9 -631.9,631.9 -349.01,0 -631.9,-282.89 -631.9,-631.9l0 -6318.98c0,-349 282.89,-631.89 631.9,-631.89 349.01,0 631.9,282.89 631.9,631.89l0 6318.98zm1579.74 -3475.44c-174.48,0 -315.95,141.46 -315.95,315.95l0 631.9 -631.9 0 0 -1263.8 1263.8 0c0.36,59.71 6.36,119.31 18.01,177.88 3.47,18.64 9.48,35.7 13.9,53.71 7.27,28.12 12.64,57.19 22.12,84.36l-369.98 0.01zm1579.75 -315.95c0,174.48 -141.46,315.95 -315.95,315.95 -174.48,0 -315.95,-141.47 -315.95,-315.95l0 -947.84c0,-174.48 141.46,-315.95 315.95,-315.95 174.49,0 315.95,141.47 315.95,315.95l0 947.84zm1263.8 0c0,174.48 -141.47,315.95 -315.95,315.95 -174.48,0 -315.95,-141.47 -315.95,-315.95l0 -947.84c0,-174.48 141.46,-315.95 315.95,-315.95 174.48,0 315.95,141.47 315.95,315.95l0 947.84zm1895.69 -947.84c0,-174.48 141.46,-315.95 315.95,-315.95 174.48,0 315.95,141.47 315.95,315.95l0 947.84c0,174.48 -141.47,315.95 -315.95,315.95 -174.48,0 -315.95,-141.47 -315.95,-315.95l0 -947.84zm-1263.8 0c0,-174.48 141.46,-315.95 315.95,-315.95 174.48,0 315.95,141.47 315.95,315.95l0 947.84c0,174.48 -141.46,315.95 -315.95,315.95 -174.49,0 -315.95,-141.47 -315.95,-315.95l0 -947.84zm3791.39 2211.64l0 0 -4107.34 0c0,-3.16 0,-5.69 0,-8.84 -0.28,-62.84 -6.83,-125.51 -19.58,-187.05 -1.9,-8.53 -6.01,-16.43 -7.9,-25.27 -5.69,-23.06 -13.9,-44.55 -21.17,-66.98 -13.35,-40.48 -29.5,-79.94 -48.34,-118.17 -9.16,-18.95 -13.58,-40.44 -24.01,-58.76 3.6,-2.45 7.07,-5.1 10.43,-7.9 14.54,-9.48 27.17,-20.85 41.07,-31.6 23.7,-17.69 48.65,-34.12 70.77,-54.02 18.33,16.43 39.49,29.38 59.08,44.23 19.59,14.85 38.86,31.59 60.03,44.86 29.82,18.4 60.62,35.19 92.26,50.24 21.48,10.42 41.71,22.75 63.19,31.59 36.89,14.14 74.68,25.87 113.11,35.07 19.9,5.37 38.54,12.95 59.08,17.06 121.52,24.84 246.83,24.84 368.39,0 20.54,-4.11 39.18,-11.69 59.09,-17.06 38.42,-9.2 76.22,-20.93 113.11,-35.07 22.43,-9.16 42.65,-21.48 63.19,-31.59 31.76,-15.05 62.64,-31.84 92.58,-50.24 20.85,-13.9 39.81,-29.7 59.71,-44.86 19.9,-15.17 40.76,-27.81 59.09,-44.23 18.33,16.43 39.49,29.38 59.08,44.23 19.58,14.85 38.86,31.59 60.03,44.86 29.81,18.4 60.62,35.19 92.25,50.24 21.48,10.42 41.71,22.75 63.19,31.59 36.89,14.14 74.68,25.87 113.11,35.07 19.9,5.37 38.55,12.95 59.08,17.06 511.64,103.99 1010.68,-226.46 1114.67,-738.06 12.72,-62.6 19.07,-126.3 18.95,-190.2l1263.8 -0.01 0 1263.8zm1895.69 2527.59c0,349.01 -282.89,631.9 -631.9,631.9 -349.01,0 -631.9,-282.89 -631.9,-631.9l0 -6318.98c0,-349 282.89,-631.89 631.89,-631.89 349.01,0 631.9,282.89 631.9,631.89l0.01 6318.98zm1579.74 -1421.77c0,261.73 -212.2,473.93 -473.92,473.93 -261.72,0 -473.92,-212.2 -473.92,-473.93l0 -3475.44c0,-261.72 212.2,-473.92 473.92,-473.92 261.72,0 473.92,212.2 473.92,473.92l0 3475.44zm1263.8 -1105.82l-631.9 0 0 -1263.8 631.9 0 0 1263.8z"/>
    </g>
   </g>
   <g>
   </g>
   <g>
   </g>
   <g>
   </g>
   <g>
   </g>
   <g>
   </g>
   <g>
   </g>
   <g>
   </g>
   <g>
   </g>
   <g>
   </g>
   <g>
   </g>
   <g>
   </g>
   <g>
   </g>
   <g>
   </g>
   <g>
   </g>
   <g>
   </g>
  </g>
 </g>
</svg>
