<?xml version="1.0" encoding="UTF-16"?>
<!DOCTYPE svg PUBLIC "-//W3C//DTD SVG 1.1//EN" "http://www.w3.org/Graphics/SVG/1.1/DTD/svg11.dtd">
<!-- Creator: CorelDRAW 2019 (64-Bit) -->
<svg xmlns="http://www.w3.org/2000/svg" xml:space="preserve" width="207.379mm" height="266.315mm" version="1.1" style="shape-rendering:geometricPrecision; text-rendering:geometricPrecision; image-rendering:optimizeQuality; fill-rule:evenodd; clip-rule:evenodd"
viewBox="0 0 4449.1 5713.51"
 xmlns:xlink="http://www.w3.org/1999/xlink"
 xmlns:xodm="http://www.corel.com/coreldraw/odm/2003">
 <defs>
  <style type="text/css">
   <![CDATA[
    .fil0 {fill:#2B2A29;fill-rule:nonzero}
   ]]>
  </style>
 </defs>
 <g id="Layer_x0020_1">
  <metadata id="CorelCorpID_0Corel-Layer"/>
  <g id="_1999392946000">
   <path class="fil0" d="M4392.49 1156.83l-2147.38 -1144.24c-31.86,-17 -70.04,-16.76 -101.66,0.6l-2087.97 1144.24c-34.24,18.79 -55.48,54.71 -55.48,93.78l0 1494.67c1.25,1228.65 729.2,2340.2 1854.94,2832.43l289.82 126.3c27.09,11.81 57.93,11.87 85.07,0.12l326.57 -141.03c1146.62,-481.56 1892.59,-1603.84 1892.7,-2847.47l0 -1465.02c0,-39.49 -21.77,-75.83 -56.61,-94.38l0 -0zm-157.2 1559.4c-0.24,1157.9 -694.95,2202.69 -1762.59,2650.78l-0.71 0.36 -284.39 122.78 -247.1 -107.8c-1047.89,-458.17 -1725.55,-1492.76 -1726.74,-2636.46l0 -1431.37 1981.78 -1086.13 2039.76 1086.91 -0 1400.94zm0 0z"/>
   <path class="fil0" d="M1406.79 2676.55c-38.36,-44.92 -105.83,-50.23 -150.75,-11.87 -44.92,38.3 -50.23,105.83 -11.87,150.69l564.72 661.31c37.7,44.15 103.74,50.17 148.73,13.54l1315.22 -1070.02c45.82,-37.23 52.74,-104.58 15.45,-150.4 -37.23,-45.76 -104.58,-52.74 -150.39,-15.45l-1234.2 1004.04 -496.89 -581.84zm0 0z"/>
  </g>
 </g>
</svg>
